{
  "npmScope": "buza",
  "affected": {
    "defaultBase": "master"
  },
  "implicitDependencies": {
    "angular.json": "*",
    "package.json": {
      "dependencies": "*",
      "devDependencies": "*"
    },
    "tsconfig.json": "*",
    "tslint.json": "*",
    "nx.json": "*"
  },
  "tasksRunnerOptions": {
    "default": {
      "runner": "@nrwl/workspace/tasks-runners/default",
      "options": {
        "cacheableOperations": ["build", "lint", "test", "e2e"]
      }
    }
  },
  "projects": {
    "acme": {
      "tags": []
    },
    "acme-e2e": {
      "tags": [],
      "implicitDependencies": ["acme"]
    },
    "products-domain": {
      "tags": []
    },
    "products-ui": {
      "tags": []
    },
    "products-shell": {
      "tags": []
    },
    "products-data-access": {
      "tags": []
    },
    "layout-menu": {
      "tags": []
    },
    "layout-shell": {
      "tags": []
    }
  }
}
